%YAML 1.1
%TAG !u! tag:unity3d.com,2011:
--- !u!114 &11400000
MonoBehaviour:
  m_ObjectHideFlags: 0
  m_CorrespondingSourceObject: {fileID: 0}
  m_PrefabInstance: {fileID: 0}
  m_PrefabAsset: {fileID: 0}
  m_GameObject: {fileID: 0}
  m_Enabled: 1
  m_EditorHideFlags: 0
  m_Script: {fileID: 11500000, guid: 27702f64952a0464fafe74c146b7f1d5, type: 3}
  m_Name: Platform_Modern_White
  m_EditorClassIdentifier: 
  _MaterialReference:
    m_AssetGUID: ce80aa1aa418d7a479b4a2ec0d49df7b
    m_SubObjectName: 
    m_SubObjectType: 
