%YAML 1.1
%TAG !u! tag:unity3d.com,2011:
--- !u!114 &11400000
MonoBehaviour:
  m_ObjectHideFlags: 0
  m_CorrespondingSourceObject: {fileID: 0}
  m_PrefabInstance: {fileID: 0}
  m_PrefabAsset: {fileID: 0}
  m_GameObject: {fileID: 0}
  m_Enabled: 1
  m_EditorHideFlags: 0
  m_Script: {fileID: 11500000, guid: 81a1b764c2e14674da9c3a3258fc2567, type: 3}
  m_Name: BallSkin_Simple_Violet
  m_EditorClassIdentifier: 
  _MaterialReference:
    m_AssetGUID: e3af4ff0f7bc9f54385f8b8f83e4e89c
    m_SubObjectName: 
    m_SubObjectType: 
