%YAML 1.1
%TAG !u! tag:unity3d.com,2011:
--- !u!114 &11400000
MonoBehaviour:
  m_ObjectHideFlags: 0
  m_CorrespondingSourceObject: {fileID: 0}
  m_PrefabInstance: {fileID: 0}
  m_PrefabAsset: {fileID: 0}
  m_GameObject: {fileID: 0}
  m_Enabled: 1
  m_EditorHideFlags: 0
  m_Script: {fileID: 11500000, guid: d57a188180c94b0c9fc93380aa4a1a8f, type: 3}
  m_Name: LocalizationParametersInstaller
  m_EditorClassIdentifier: 
  _LocalizationParameters: {fileID: 11400000, guid: 7b0af8cf34c30e543bd4323f0240fb6b,
    type: 2}
