%YAML 1.1
%TAG !u! tag:unity3d.com,2011:
--- !u!114 &11400000
MonoBehaviour:
  m_ObjectHideFlags: 0
  m_CorrespondingSourceObject: {fileID: 0}
  m_PrefabInstance: {fileID: 0}
  m_PrefabAsset: {fileID: 0}
  m_GameObject: {fileID: 0}
  m_Enabled: 1
  m_EditorHideFlags: 0
  m_Script: {fileID: 11500000, guid: c2dbff3605333a749b6e993e858baeac, type: 3}
  m_Name: ParametersInstaller
  m_EditorClassIdentifier: 
  _GameParameters: {fileID: 11400000, guid: 4dbc7b3c55102644fbb5f1616729f894, type: 2}
  _GamePrefabs: {fileID: 11400000, guid: ebbe93a523f1b7a458b6fbeed63bb6d6, type: 2}
  _ControlConfig: {fileID: 11400000, guid: aecf18d04334aed45867e7c682aead85, type: 2}
  _VibrationSettings: {fileID: 11400000, guid: 46b431491f65410448535e0d6bfa38b8, type: 2}
